altera-rgmii-bringup/scope-dumps/good-gige-rx.vcd
$date
	2021-09-19 18:11
$end
$timescale 4000ps $end
$scope 1ps $end
$var wire 2 ! main_ethphy1_rx_ctl $end
$var wire 2 " main_ethphy1_rx_ctl_reg $end
$var wire 1 # main_ethphy1_source_valid $end
$var wire 1 $ main_ethphy1_source_ready $end
$var wire 1 % main_ethphy1_source_first $end
$var wire 1 & main_ethphy1_source_last $end
$var wire 8 ' main_ethphy1_source_payload_data $end
$var wire 1 ( main_ethphy1_source_payload_last_be $end
$var wire 1 ) main_ethphy1_source_payload_error $end
$var wire 8 * main_ethphy1_rx_data $end
$var wire 8 + main_ethphy1_rx_data_reg $end
$var wire 1 , main_ethphy1_reset_storage $end
$var wire 1 - main_ethphy1_reset_re $end
$var wire 8 . main_ethphy1_rx_cnt $end
$var wire 8 / main_ethphy1_tx_cnt $end
$var wire 1 0 main_ethphy1_reset0 $end
$var wire 1 1 eth_rst_n_1 $end
$var wire 1 2 eth_rx_ctl $end
$var wire 1 3 eth_rx_er_1 $end
$var wire 4 4 eth_rx_data_1 $end
$var wire 1 5 eth_tx_ctl $end
$var wire 1 6 eth_tx_er_1 $end
$var wire 4 7 eth_tx_data_1 $end
$var wire 1 8 eth_col_1 $end
$var wire 1 9 eth_crs_1 $end
$var wire 1 : main_ethphy1_reset1 $end
$var wire 1 ; scope_clk $end
$var wire 1 < scope_trig $end
$unscope  $end
$enddefinitions  $end
$dumpvars
bxx !
bxx "
bx #
bx $
bx %
bx &
bxxxxxxxx '
bx (
bx )
bxxxxxxxx *
bxxxxxxxx +
bx ,
bx -
bxxxxxxxx .
bxxxxxxxx /
bx 0
bx 1
bx 2
bx 3
bxxxx 4
bx 5
bx 6
bxxxx 7
bx 8
bx 9
bx :
bx ;
bx <
$end
#0
b00 !
b00 "
b0 #
b0 $
b0 %
b0 &
b11011101 '
b0 (
b0 )
b11011101 *
b11011101 +
b0 ,
b0 -
b00011010 .
b10010010 /
b0 0
b1 1
b0 2
b0 3
b1101 4
b1 5
b1 6
b1111 7
b0 8
b0 9
b0 :
b1 ;
b0 <
#1
b00 !
b00 "
b0 #
b0 $
b0 %
b0 &
b11011101 '
b0 (
b0 )
b11011101 *
b11011101 +
b0 ,
b0 -
b00011010 .
b10010010 /
b0 0
b1 1
b0 2
b0 3
b1101 4
b1 5
b1 6
b1111 7
b0 8
b0 9
b0 :
b0 ;
b0 <
#2
b00 !
b00 "
b0 #
b0 $
b0 %
b0 &
b11011101 '
b0 (
b0 )
b11011101 *
b11011101 +
b0 ,
b0 -
b00011011 .
b10010011 /
b0 0
b1 1
b0 2
b0 3
b1101 4
b1 5
b1 6
b1111 7
b0 8
b0 9
b0 :
b1 ;
b0 <
#3
b00 !
b00 "
b0 #
b0 $
b0 %
b0 &
b11011101 '
b0 (
b0 )
b11011101 *
b11011101 +
b0 ,
b0 -
b00011011 .
b10010011 /
b0 0
b1 1
b0 2
b0 3
b1101 4
b1 5
b1 6
b1111 7
b0 8
b0 9
b0 :
b0 ;
b0 <
#4
b00 !
b00 "
b0 #
b0 $
b0 %
b0 &
b11011101 '
b0 (
b0 )
b11011101 *
b11011101 +
b0 ,
b0 -
b00011100 .
b10010100 /
b0 0
b1 1
b0 2
b0 3
b1101 4
b1 5
b1 6
b1111 7
b0 8
b0 9
b0 :
b1 ;
b0 <
#5
b00 !
b00 "
b0 #
b0 $
b0 %
b0 &
b11011101 '
b0 (
b0 )
b11011101 *
b11011101 +
b0 ,
b0 -
b00011100 .
b10010100 /
b0 0
b1 1
b0 2
b0 3
b1101 4
b1 5
b1 6
b1111 7
b0 8
b0 9
b0 :
b0 ;
b0 <
#6
b00 !
b00 "
b0 #
b0 $
b0 %
b0 &
b11011101 '
b0 (
b0 )
b11011101 *
b11011101 +
b0 ,
b0 -
b00011101 .
b10010101 /
b0 0
b1 1
b0 2
b0 3
b1101 4
b1 5
b1 6
b1111 7
b0 8
b0 9
b0 :
b1 ;
b0 <
#7
b00 !
b00 "
b0 #
b0 $
b0 %
b0 &
b11011101 '
b0 (
b0 )
b11011101 *
b11011101 +
b0 ,
b0 -
b00011101 .
b10010101 /
b0 0
b1 1
b0 2
b0 3
b1101 4
b1 5
b1 6
b1111 7
b0 8
b0 9
b0 :
b0 ;
b0 <
#8
b00 !
b00 "
b0 #
b0 $
b0 %
b0 &
b11011101 '
b0 (
b0 )
b11011101 *
b11011101 +
b0 ,
b0 -
b00011110 .
b10010110 /
b0 0
b1 1
b0 2
b0 3
b1101 4
b1 5
b1 6
b1111 7
b0 8
b0 9
b0 :
b1 ;
b0 <
#9
b00 !
b00 "
b0 #
b0 $
b0 %
b0 &
b11011101 '
b0 (
b0 )
b11011101 *
b11011101 +
b0 ,
b0 -
b00011110 .
b10010110 /
b0 0
b1 1
b0 2
b0 3
b1101 4
b1 5
b1 6
b1111 7
b0 8
b0 9
b0 :
b0 ;
b0 <
#10
b00 !
b00 "
b0 #
b0 $
b0 %
b0 &
b11011101 '
b0 (
b0 )
b11011101 *
b11011101 +
b0 ,
b0 -
b00011111 .
b10010111 /
b0 0
b1 1
b0 2
b0 3
b1111 4
b1 5
b1 6
b1111 7
b0 8
b0 9
b0 :
b1 ;
b0 <
#11
b00 !
b00 "
b0 #
b0 $
b0 %
b0 &
b11011101 '
b0 (
b0 )
b11011101 *
b11011101 +
b0 ,
b0 -
b00011111 .
b10010111 /
b0 0
b1 1
b0 2
b0 3
b1111 4
b1 5
b1 6
b1111 7
b0 8
b0 9
b0 :
b0 ;
b0 <
#12
b00 !
b00 "
b0 #
b0 $
b0 %
b0 &
b11011101 '
b0 (
b0 )
b11111111 *
b11011111 +
b0 ,
b0 -
b00100000 .
b10011000 /
b0 0
b1 1
b0 2
b0 3
b1111 4
b1 5
b1 6
b1111 7
b0 8
b0 9
b0 :
b1 ;
b0 <
#13
b00 !
b00 "
b0 #
b0 $
b0 %
b0 &
b11011101 '
b0 (
b0 )
b11111111 *
b11011111 +
b0 ,
b0 -
b00100000 .
b10011000 /
b0 0
b1 1
b0 2
b0 3
b1111 4
b1 5
b1 6
b1111 7
b0 8
b0 9
b0 :
b0 ;
b0 <
#14
b10 !
b10 "
b0 #
b0 $
b0 %
b0 &
b11011111 '
b0 (
b0 )
b11111101 *
b11111111 +
b0 ,
b0 -
b00100001 .
b10011001 /
b0 0
b1 1
b1 2
b0 3
b0101 4
b1 5
b1 6
b1111 7
b0 8
b0 9
b0 :
b1 ;
b0 <
#15
b10 !
b10 "
b0 #
b0 $
b0 %
b0 &
b11011111 '
b0 (
b0 )
b11111101 *
b11111111 +
b0 ,
b0 -
b00100001 .
b10011001 /
b0 0
b1 1
b1 2
b0 3
b0101 4
b1 5
b1 6
b1111 7
b0 8
b0 9
b0 :
b0 ;
b0 <
#16
b11 !
b11 "
b0 #
b0 $
b0 %
b0 &
b11111111 '
b0 (
b0 )
b11010101 *
b11110101 +
b0 ,
b0 -
b00100010 .
b10011010 /
b0 0
b1 1
b1 2
b0 3
b0101 4
b1 5
b1 6
b1111 7
b0 8
b0 9
b0 :
b1 ;
b0 <
#17
b11 !
b11 "
b0 #
b0 $
b0 %
b0 &
b11111111 '
b0 (
b0 )
b11010101 *
b11110101 +
b0 ,
b0 -
b00100010 .
b10011010 /
b0 0
b1 1
b1 2
b0 3
b0101 4
b1 5
b1 6
b1111 7
b0 8
b0 9
b0 :
b0 ;
b0 <
#18
b11 !
b11 "
b1 #
b0 $
b0 %
b0 &
b11110101 '
b0 (
b0 )
b01010101 *
b01010101 +
b0 ,
b0 -
b00100011 .
b10011011 /
b0 0
b1 1
b1 2
b0 3
b0101 4
b1 5
b1 6
b1111 7
b0 8
b0 9
b0 :
b1 ;
b0 <
#19
b11 !
b11 "
b1 #
b0 $
b0 %
b0 &
b11110101 '
b0 (
b0 )
b01010101 *
b01010101 +
b0 ,
b0 -
b00100011 .
b10011011 /
b0 0
b1 1
b1 2
b0 3
b0101 4
b1 5
b1 6
b1111 7
b0 8
b0 9
b0 :
b0 ;
b0 <
#20
b11 !
b11 "
b1 #
b0 $
b0 %
b0 &
b01010101 '
b0 (
b0 )
b01010101 *
b01010101 +
b0 ,
b0 -
b00100100 .
b10011100 /
b0 0
b1 1
b1 2
b0 3
b0101 4
b1 5
b1 6
b1111 7
b0 8
b0 9
b0 :
b1 ;
b0 <
#21
b11 !
b11 "
b1 #
b0 $
b0 %
b0 &
b01010101 '
b0 (
b0 )
b01010101 *
b01010101 +
b0 ,
b0 -
b00100100 .
b10011100 /
b0 0
b1 1
b1 2
b0 3
b0101 4
b1 5
b1 6
b1111 7
b0 8
b0 9
b0 :
b0 ;
b0 <
#22
b11 !
b11 "
b1 #
b0 $
b0 %
b0 &
b01010101 '
b0 (
b0 )
b01010101 *
b01010101 +
b0 ,
b0 -
b00100101 .
b10011101 /
b0 0
b1 1
b1 2
b0 3
b0101 4
b1 5
b1 6
b1111 7
b0 8
b0 9
b0 :
b1 ;
b0 <
#23
b11 !
b11 "
b1 #
b0 $
b0 %
b0 &
b01010101 '
b0 (
b0 )
b01010101 *
b01010101 +
b0 ,
b0 -
b00100101 .
b10011101 /
b0 0
b1 1
b1 2
b0 3
b0101 4
b1 5
b1 6
b1111 7
b0 8
b0 9
b0 :
b0 ;
b0 <
#24
b11 !
b11 "
b1 #
b0 $
b0 %
b0 &
b01010101 '
b0 (
b0 )
b01010101 *
b01010101 +
b0 ,
b0 -
b00100110 .
b10011110 /
b0 0
b1 1
b1 2
b0 3
b0101 4
b1 5
b1 6
b1111 7
b0 8
b0 9
b0 :
b1 ;
b0 <
#25
b11 !
b11 "
b1 #
b0 $
b0 %
b0 &
b01010101 '
b0 (
b0 )
b01010101 *
b01010101 +
b0 ,
b0 -
b00100110 .
b10011110 /
b0 0
b1 1
b1 2
b0 3
b0101 4
b1 5
b1 6
b1111 7
b0 8
b0 9
b0 :
b0 ;
b0 <
#26
b11 !
b11 "
b1 #
b0 $
b0 %
b0 &
b01010101 '
b0 (
b0 )
b01010101 *
b01010101 +
b0 ,
b0 -
b00100111 .
b10011111 /
b0 0
b1 1
b1 2
b0 3
b0101 4
b1 5
b1 6
b1111 7
b0 8
b0 9
b0 :
b1 ;
b0 <
#27
b11 !
b11 "
b1 #
b0 $
b0 %
b0 &
b01010101 '
b0 (
b0 )
b01010101 *
b01010101 +
b0 ,
b0 -
b00100111 .
b10011111 /
b0 0
b1 1
b1 2
b0 3
b0101 4
b1 5
b1 6
b1111 7
b0 8
b0 9
b0 :
b0 ;
b0 <
#28
b11 !
b11 "
b1 #
b0 $
b0 %
b0 &
b01010101 '
b0 (
b0 )
b01010101 *
b01010101 +
b0 ,
b0 -
b00101000 .
b10100000 /
b0 0
b1 1
b1 2
b0 3
b0101 4
b1 5
b1 6
b1111 7
b0 8
b0 9
b0 :
b1 ;
b0 <
#29
b11 !
b11 "
b1 #
b0 $
b0 %
b0 &
b01010101 '
b0 (
b0 )
b01010101 *
b01010101 +
b0 ,
b0 -
b00101000 .
b10100000 /
b0 0
b1 1
b1 2
b0 3
b0101 4
b1 5
b1 6
b1111 7
b0 8
b0 9
b0 :
b0 ;
b0 <
#30
b11 !
b11 "
b1 #
b0 $
b0 %
b0 &
b01010101 '
b0 (
b0 )
b01010111 *
b01010101 +
b0 ,
b0 -
b00101001 .
b10100001 /
b0 0
b1 1
b1 2
b0 3
b1111 4
b1 5
b1 6
b1111 7
b0 8
b0 9
b0 :
b1 ;
b0 <
#31
b11 !
b11 "
b1 #
b0 $
b0 %
b0 &
b01010101 '
b0 (
b0 )
b01010111 *
b01010101 +
b0 ,
b0 -
b00101001 .
b10100001 /
b0 0
b1 1
b1 2
b0 3
b1111 4
b1 5
b1 6
b1111 7
b0 8
b0 9
b0 :
b0 ;
b0 <
#32
b11 !
b11 "
b1 #
b0 $
b0 %
b0 &
b01010101 '
b0 (
b0 )
b11111111 *
b11011111 +
b0 ,
b0 -
b00101010 .
b10100010 /
b0 0
b1 1
b1 2
b0 3
b1111 4
b1 5
b1 6
b1111 7
b0 8
b0 9
b0 :
b1 ;
b1 <
#33
b11 !
b11 "
b1 #
b0 $
b0 %
b0 &
b01010101 '
b0 (
b0 )
b11111111 *
b11011111 +
b0 ,
b0 -
b00101010 .
b10100010 /
b0 0
b1 1
b1 2
b0 3
b1111 4
b1 5
b1 6
b1111 7
b0 8
b0 9
b0 :
b0 ;
b1 <
#34
b11 !
b11 "
b1 #
b0 $
b0 %
b0 &
b11011111 '
b0 (
b0 )
b11111111 *
b11111111 +
b0 ,
b0 -
b00101011 .
b10100011 /
b0 0
b1 1
b1 2
b0 3
b1111 4
b1 5
b1 6
b1111 7
b0 8
b0 9
b0 :
b1 ;
b1 <
#35
b11 !
b11 "
b1 #
b0 $
b0 %
b0 &
b11011111 '
b0 (
b0 )
b11111111 *
b11111111 +
b0 ,
b0 -
b00101011 .
b10100011 /
b0 0
b1 1
b1 2
b0 3
b1111 4
b1 5
b1 6
b1111 7
b0 8
b0 9
b0 :
b0 ;
b1 <
#36
b11 !
b11 "
b1 #
b0 $
b0 %
b0 &
b11111111 '
b0 (
b0 )
b11111111 *
b11111111 +
b0 ,
b0 -
b00101100 .
b10100100 /
b0 0
b1 1
b1 2
b0 3
b1111 4
b1 5
b1 6
b1111 7
b0 8
b0 9
b0 :
b1 ;
b1 <
#37
b11 !
b11 "
b1 #
b0 $
b0 %
b0 &
b11111111 '
b0 (
b0 )
b11111111 *
b11111111 +
b0 ,
b0 -
b00101100 .
b10100100 /
b0 0
b1 1
b1 2
b0 3
b1111 4
b1 5
b1 6
b1111 7
b0 8
b0 9
b0 :
b0 ;
b1 <
#38
b11 !
b11 "
b1 #
b0 $
b0 %
b0 &
b11111111 '
b0 (
b0 )
b11111111 *
b11111111 +
b0 ,
b0 -
b00101101 .
b10100101 /
b0 0
b1 1
b1 2
b0 3
b1111 4
b1 5
b1 6
b1111 7
b0 8
b0 9
b0 :
b1 ;
b1 <
#39
b11 !
b11 "
b1 #
b0 $
b0 %
b0 &
b11111111 '
b0 (
b0 )
b11111111 *
b11111111 +
b0 ,
b0 -
b00101101 .
b10100101 /
b0 0
b1 1
b1 2
b0 3
b1111 4
b1 5
b1 6
b1111 7
b0 8
b0 9
b0 :
b0 ;
b1 <
#40
b11 !
b11 "
b1 #
b0 $
b0 %
b0 &
b11111111 '
b0 (
b0 )
b11111111 *
b11111111 +
b0 ,
b0 -
b00101110 .
b10100110 /
b0 0
b1 1
b1 2
b0 3
b1111 4
b1 5
b1 6
b1111 7
b0 8
b0 9
b0 :
b1 ;
b1 <
#41
b11 !
b11 "
b1 #
b0 $
b0 %
b0 &
b11111111 '
b0 (
b0 )
b11111111 *
b11111111 +
b0 ,
b0 -
b00101110 .
b10100110 /
b0 0
b1 1
b1 2
b0 3
b1111 4
b1 5
b1 6
b1111 7
b0 8
b0 9
b0 :
b0 ;
b1 <
#42
b11 !
b11 "
b1 #
b0 $
b0 %
b0 &
b11111111 '
b0 (
b0 )
b11111111 *
b11111111 +
b0 ,
b0 -
b00101111 .
b10100111 /
b0 0
b1 1
b1 2
b0 3
b1100 4
b1 5
b1 6
b1111 7
b0 8
b0 9
b0 :
b1 ;
b1 <
#43
b11 !
b11 "
b1 #
b0 $
b0 %
b0 &
b11111111 '
b0 (
b0 )
b11111111 *
b11111111 +
b0 ,
b0 -
b00101111 .
b10100111 /
b0 0
b1 1
b1 2
b0 3
b1100 4
b1 5
b1 6
b1111 7
b0 8
b0 9
b0 :
b0 ;
b1 <
#44
b11 !
b11 "
b1 #
b0 $
b0 %
b0 &
b11111111 '
b0 (
b0 )
b11011100 *
b11111100 +
b0 ,
b0 -
b00110000 .
b10101000 /
b0 0
b1 1
b1 2
b0 3
b1110 4
b1 5
b1 6
b1111 7
b0 8
b0 9
b0 :
b1 ;
b1 <
#45
b11 !
b11 "
b1 #
b0 $
b0 %
b0 &
b11111111 '
b0 (
b0 )
b11011100 *
b11111100 +
b0 ,
b0 -
b00110000 .
b10101000 /
b0 0
b1 1
b1 2
b0 3
b1110 4
b1 5
b1 6
b1111 7
b0 8
b0 9
b0 :
b0 ;
b1 <
#46
b11 !
b11 "
b1 #
b0 $
b0 %
b0 &
b11111100 '
b0 (
b0 )
b10101100 *
b10001110 +
b0 ,
b0 -
b00110001 .
b10101001 /
b0 0
b1 1
b1 2
b0 3
b1100 4
b1 5
b1 6
b1111 7
b0 8
b0 9
b0 :
b1 ;
b1 <
#47
b11 !
b11 "
b1 #
b0 $
b0 %
b0 &
b11111100 '
b0 (
b0 )
b10101100 *
b10001110 +
b0 ,
b0 -
b00110001 .
b10101001 /
b0 0
b1 1
b1 2
b0 3
b1100 4
b1 5
b1 6
b1111 7
b0 8
b0 9
b0 :
b0 ;
b1 <
#48
b11 !
b11 "
b1 #
b0 $
b0 %
b0 &
b10001110 '
b0 (
b0 )
b10001100 *
b10101100 +
b0 ,
b0 -
b00110010 .
b10101010 /
b0 0
b1 1
b1 2
b0 3
b0100 4
b1 5
b1 6
b1111 7
b0 8
b0 9
b0 :
b1 ;
b1 <
#49
b11 !
b11 "
b1 #
b0 $
b0 %
b0 &
b10001110 '
b0 (
b0 )
b10001100 *
b10101100 +
b0 ,
b0 -
b00110010 .
b10101010 /
b0 0
b1 1
b1 2
b0 3
b0100 4
b1 5
b1 6
b1111 7
b0 8
b0 9
b0 :
b0 ;
b1 <
#50
b11 !
b11 "
b1 #
b0 $
b0 %
b0 &
b10101100 '
b0 (
b0 )
b01100100 *
b01000100 +
b0 ,
b0 -
b00110011 .
b10101011 /
b0 0
b1 1
b1 2
b0 3
b1100 4
b1 5
b1 6
b1111 7
b0 8
b0 9
b0 :
b1 ;
b1 <
#51
b11 !
b11 "
b1 #
b0 $
b0 %
b0 &
b10101100 '
b0 (
b0 )
b01100100 *
b01000100 +
b0 ,
b0 -
b00110011 .
b10101011 /
b0 0
b1 1
b1 2
b0 3
b1100 4
b1 5
b1 6
b1111 7
b0 8
b0 9
b0 :
b0 ;
b1 <
#52
b11 !
b11 "
b1 #
b0 $
b0 %
b0 &
b01000100 '
b0 (
b0 )
b11111100 *
b11111100 +
b0 ,
b0 -
b00110100 .
b10101100 /
b0 0
b1 1
b1 2
b0 3
b0001 4
b1 5
b1 6
b1111 7
b0 8
b0 9
b0 :
b1 ;
b1 <
#53
b11 !
b11 "
b1 #
b0 $
b0 %
b0 &
b01000100 '
b0 (
b0 )
b11111100 *
b11111100 +
b0 ,
b0 -
b00110100 .
b10101100 /
b0 0
b1 1
b1 2
b0 3
b0001 4
b1 5
b1 6
b1111 7
b0 8
b0 9
b0 :
b0 ;
b1 <
#54
b11 !
b11 "
b1 #
b0 $
b0 %
b0 &
b11111100 '
b0 (
b0 )
b00000001 *
b00100001 +
b0 ,
b0 -
b00110101 .
b10101101 /
b0 0
b1 1
b1 2
b0 3
b1000 4
b1 5
b1 6
b1111 7
b0 8
b0 9
b0 :
b1 ;
b1 <
#55
b11 !
b11 "
b1 #
b0 $
b0 %
b0 &
b11111100 '
b0 (
b0 )
b00000001 *
b00100001 +
b0 ,
b0 -
b00110101 .
b10101101 /
b0 0
b1 1
b1 2
b0 3
b1000 4
b1 5
b1 6
b1111 7
b0 8
b0 9
b0 :
b0 ;
b1 <
#56
b11 !
b11 "
b1 #
b0 $
b0 %
b0 &
b00100001 '
b0 (
b0 )
b00011000 *
b00011000 +
b0 ,
b0 -
b00110110 .
b10101110 /
b0 0
b1 1
b1 2
b0 3
b0110 4
b1 5
b1 6
b1111 7
b0 8
b0 9
b0 :
b1 ;
b1 <
#57
b11 !
b11 "
b1 #
b0 $
b0 %
b0 &
b00100001 '
b0 (
b0 )
b00011000 *
b00011000 +
b0 ,
b0 -
b00110110 .
b10101110 /
b0 0
b1 1
b1 2
b0 3
b0110 4
b1 5
b1 6
b1111 7
b0 8
b0 9
b0 :
b0 ;
b1 <
#58
b11 !
b11 "
b1 #
b0 $
b0 %
b0 &
b00011000 '
b0 (
b0 )
b00000100 *
b00000110 +
b0 ,
b0 -
b00110111 .
b10101111 /
b0 0
b1 1
b1 2
b0 3
b0000 4
b1 5
b1 6
b1111 7
b0 8
b0 9
b0 :
b1 ;
b1 <
#59
b11 !
b11 "
b1 #
b0 $
b0 %
b0 &
b00011000 '
b0 (
b0 )
b00000100 *
b00000110 +
b0 ,
b0 -
b00110111 .
b10101111 /
b0 0
b1 1
b1 2
b0 3
b0000 4
b1 5
b1 6
b1111 7
b0 8
b0 9
b0 :
b0 ;
b1 <
#60
b11 !
b11 "
b1 #
b0 $
b0 %
b0 &
b00000110 '
b0 (
b0 )
b00000000 *
b00000000 +
b0 ,
b0 -
b00111000 .
b10110000 /
b0 0
b1 1
b1 2
b0 3
b0001 4
b1 5
b1 6
b1111 7
b0 8
b0 9
b0 :
b1 ;
b1 <
#61
b11 !
b11 "
b1 #
b0 $
b0 %
b0 &
b00000110 '
b0 (
b0 )
b00000000 *
b00000000 +
b0 ,
b0 -
b00111000 .
b10110000 /
b0 0
b1 1
b1 2
b0 3
b0001 4
b1 5
b1 6
b1111 7
b0 8
b0 9
b0 :
b0 ;
b1 <
#62
b11 !
b11 "
b1 #
b0 $
b0 %
b0 &
b00000000 '
b0 (
b0 )
b00000001 *
b00000001 +
b0 ,
b0 -
b00111001 .
b10110001 /
b0 0
b1 1
b1 2
b0 3
b1000 4
b1 5
b1 6
b1111 7
b0 8
b0 9
b0 :
b1 ;
b1 <
#63
b11 !
b11 "
b1 #
b0 $
b0 %
b0 &
b00000000 '
b0 (
b0 )
b00000001 *
b00000001 +
b0 ,
b0 -
b00111001 .
b10110001 /
b0 0
b1 1
b1 2
b0 3
b1000 4
b1 5
b1 6
b1111 7
b0 8
b0 9
b0 :
b0 ;
b1 <
#64
b11 !
b11 "
b1 #
b0 $
b0 %
b0 &
b00000001 '
b0 (
b0 )
b00001000 *
b00001000 +
b0 ,
b0 -
b00111010 .
b10110010 /
b0 0
b1 1
b1 2
b0 3
b0000 4
b1 5
b1 6
b1111 7
b0 8
b0 9
b0 :
b1 ;
b1 <
#65
b11 !
b11 "
b1 #
b0 $
b0 %
b0 &
b00000001 '
b0 (
b0 )
b00001000 *
b00001000 +
b0 ,
b0 -
b00111010 .
b10110010 /
b0 0
b1 1
b1 2
b0 3
b0000 4
b1 5
b1 6
b1111 7
b0 8
b0 9
b0 :
b0 ;
b1 <
#66
b11 !
b11 "
b1 #
b0 $
b0 %
b0 &
b00001000 '
b0 (
b0 )
b00000000 *
b00000000 +
b0 ,
b0 -
b00111011 .
b10110011 /
b0 0
b1 1
b1 2
b0 3
b0110 4
b1 5
b1 6
b1111 7
b0 8
b0 9
b0 :
b1 ;
b1 <
#67
b11 !
b11 "
b1 #
b0 $
b0 %
b0 &
b00001000 '
b0 (
b0 )
b00000000 *
b00000000 +
b0 ,
b0 -
b00111011 .
b10110011 /
b0 0
b1 1
b1 2
b0 3
b0110 4
b1 5
b1 6
b1111 7
b0 8
b0 9
b0 :
b0 ;
b1 <
#68
b11 !
b11 "
b1 #
b0 $
b0 %
b0 &
b00000000 '
b0 (
b0 )
b00000100 *
b00000110 +
b0 ,
b0 -
b00111100 .
b10110100 /
b0 0
b1 1
b1 2
b0 3
b0100 4
b1 5
b1 6
b1111 7
b0 8
b0 9
b0 :
b1 ;
b1 <
#69
b11 !
b11 "
b1 #
b0 $
b0 %
b0 &
b00000000 '
b0 (
b0 )
b00000100 *
b00000110 +
b0 ,
b0 -
b00111100 .
b10110100 /
b0 0
b1 1
b1 2
b0 3
b0100 4
b1 5
b1 6
b1111 7
b0 8
b0 9
b0 :
b0 ;
b1 <
#70
b11 !
b11 "
b1 #
b0 $
b0 %
b0 &
b00000110 '
b0 (
b0 )
b00000100 *
b00000100 +
b0 ,
b0 -
b00111101 .
b10110101 /
b0 0
b1 1
b1 2
b0 3
b0000 4
b1 5
b1 6
b1111 7
b0 8
b0 9
b0 :
b1 ;
b1 <
#71
b11 !
b11 "
b1 #
b0 $
b0 %
b0 &
b00000110 '
b0 (
b0 )
b00000100 *
b00000100 +
b0 ,
b0 -
b00111101 .
b10110101 /
b0 0
b1 1
b1 2
b0 3
b0000 4
b1 5
b1 6
b1111 7
b0 8
b0 9
b0 :
b0 ;
b1 <
#72
b11 !
b11 "
b1 #
b0 $
b0 %
b0 &
b00000100 '
b0 (
b0 )
b00000000 *
b00000000 +
b0 ,
b0 -
b00111110 .
b10110110 /
b0 0
b1 1
b1 2
b0 3
b0001 4
b1 5
b1 6
b1111 7
b0 8
b0 9
b0 :
b1 ;
b1 <
#73
b11 !
b11 "
b1 #
b0 $
b0 %
b0 &
b00000100 '
b0 (
b0 )
b00000000 *
b00000000 +
b0 ,
b0 -
b00111110 .
b10110110 /
b0 0
b1 1
b1 2
b0 3
b0001 4
b1 5
b1 6
b1111 7
b0 8
b0 9
b0 :
b0 ;
b1 <
#74
b11 !
b11 "
b1 #
b0 $
b0 %
b0 &
b00000000 '
b0 (
b0 )
b00000001 *
b00000001 +
b0 ,
b0 -
b00111111 .
b10110111 /
b0 0
b1 1
b1 2
b0 3
b1100 4
b1 5
b1 6
b1111 7
b0 8
b0 9
b0 :
b1 ;
b1 <
#75
b11 !
b11 "
b1 #
b0 $
b0 %
b0 &
b00000000 '
b0 (
b0 )
b00000001 *
b00000001 +
b0 ,
b0 -
b00111111 .
b10110111 /
b0 0
b1 1
b1 2
b0 3
b1100 4
b1 5
b1 6
b1111 7
b0 8
b0 9
b0 :
b0 ;
b1 <
#76
b11 !
b11 "
b1 #
b0 $
b0 %
b0 &
b00000001 '
b0 (
b0 )
b00001100 *
b00001100 +
b0 ,
b0 -
b01000000 .
b10111000 /
b0 0
b1 1
b1 2
b0 3
b1110 4
b1 5
b1 6
b1111 7
b0 8
b0 9
b0 :
b1 ;
b1 <
#77
b11 !
b11 "
b1 #
b0 $
b0 %
b0 &
b00000001 '
b0 (
b0 )
b00001100 *
b00001100 +
b0 ,
b0 -
b01000000 .
b10111000 /
b0 0
b1 1
b1 2
b0 3
b1110 4
b1 5
b1 6
b1111 7
b0 8
b0 9
b0 :
b0 ;
b1 <
#78
b11 !
b11 "
b1 #
b0 $
b0 %
b0 &
b00001100 '
b0 (
b0 )
b10101100 *
b10001110 +
b0 ,
b0 -
b01000001 .
b10111001 /
b0 0
b1 1
b1 2
b0 3
b1100 4
b1 5
b1 6
b1111 7
b0 8
b0 9
b0 :
b1 ;
b1 <
#79
b11 !
b11 "
b1 #
b0 $
b0 %
b0 &
b00001100 '
b0 (
b0 )
b10101100 *
b10001110 +
b0 ,
b0 -
b01000001 .
b10111001 /
b0 0
b1 1
b1 2
b0 3
b1100 4
b1 5
b1 6
b1111 7
b0 8
b0 9
b0 :
b0 ;
b1 <
#80
b11 !
b11 "
b1 #
b0 $
b0 %
b0 &
b10001110 '
b0 (
b0 )
b10001100 *
b10101100 +
b0 ,
b0 -
b01000010 .
b10111010 /
b0 0
b1 1
b1 2
b0 3
b0100 4
b1 5
b1 6
b1111 7
b0 8
b0 9
b0 :
b1 ;
b1 <
#81
b11 !
b11 "
b1 #
b0 $
b0 %
b0 &
b10001110 '
b0 (
b0 )
b10001100 *
b10101100 +
b0 ,
b0 -
b01000010 .
b10111010 /
b0 0
b1 1
b1 2
b0 3
b0100 4
b1 5
b1 6
b1111 7
b0 8
b0 9
b0 :
b0 ;
b1 <
#82
b11 !
b11 "
b1 #
b0 $
b0 %
b0 &
b10101100 '
b0 (
b0 )
b01100100 *
b01000100 +
b0 ,
b0 -
b01000011 .
b10111011 /
b0 0
b1 1
b1 2
b0 3
b1100 4
b1 5
b1 6
b1111 7
b0 8
b0 9
b0 :
b1 ;
b1 <
#83
b11 !
b11 "
b1 #
b0 $
b0 %
b0 &
b10101100 '
b0 (
b0 )
b01100100 *
b01000100 +
b0 ,
b0 -
b01000011 .
b10111011 /
b0 0
b1 1
b1 2
b0 3
b1100 4
b1 5
b1 6
b1111 7
b0 8
b0 9
b0 :
b0 ;
b1 <
#84
b11 !
b11 "
b1 #
b0 $
b0 %
b0 &
b01000100 '
b0 (
b0 )
b11111100 *
b11111100 +
b0 ,
b0 -
b01000100 .
b10111100 /
b0 0
b1 1
b1 2
b0 3
b0001 4
b1 5
b1 6
b1111 7
b0 8
b0 9
b0 :
b1 ;
b1 <
#85
b11 !
b11 "
b1 #
b0 $
b0 %
b0 &
b01000100 '
b0 (
b0 )
b11111100 *
b11111100 +
b0 ,
b0 -
b01000100 .
b10111100 /
b0 0
b1 1
b1 2
b0 3
b0001 4
b1 5
b1 6
b1111 7
b0 8
b0 9
b0 :
b0 ;
b1 <
#86
b11 !
b11 "
b1 #
b0 $
b0 %
b0 &
b11111100 '
b0 (
b0 )
b00000001 *
b00100001 +
b0 ,
b0 -
b01000101 .
b10111101 /
b0 0
b1 1
b1 2
b0 3
b0000 4
b1 5
b1 6
b1111 7
b0 8
b0 9
b0 :
b1 ;
b1 <
#87
b11 !
b11 "
b1 #
b0 $
b0 %
b0 &
b11111100 '
b0 (
b0 )
b00000001 *
b00100001 +
b0 ,
b0 -
b01000101 .
b10111101 /
b0 0
b1 1
b1 2
b0 3
b0000 4
b1 5
b1 6
b1111 7
b0 8
b0 9
b0 :
b0 ;
b1 <
#88
b11 !
b11 "
b1 #
b0 $
b0 %
b0 &
b00100001 '
b0 (
b0 )
b00010000 *
b00010000 +
b0 ,
b0 -
b01000110 .
b10111110 /
b0 0
b1 1
b1 2
b0 3
b1000 4
b1 5
b1 6
b1111 7
b0 8
b0 9
b0 :
b1 ;
b1 <
