altera-rgmii-bringup/scope-dumps/good-gige-rx-with-arp.vcd
$date
	2021-09-19 19:58
$end
$timescale 4000ps $end
$scope 1ps $end
$var wire 8 ! main_ethphy1_tx_cnt $end
$var wire 1 " main_ethphy1_reset0 $end
$var wire 1 # main_basesoc_ethcore_arp_rx_depacketizer_sink_valid $end
$var wire 1 $ main_basesoc_ethcore_arp_rx_depacketizer_sink_ready $end
$var wire 1 % main_basesoc_ethcore_arp_rx_depacketizer_sink_first $end
$var wire 1 & main_basesoc_ethcore_arp_rx_depacketizer_sink_last $end
$var wire 16 ' main_basesoc_ethcore_arp_rx_depacketizer_sink_payload_ethernet_type $end
$var wire 48 ( main_basesoc_ethcore_arp_rx_depacketizer_sink_payload_sender_mac $end
$var wire 48 ) main_basesoc_ethcore_arp_rx_depacketizer_sink_payload_target_mac $end
$var wire 8 * main_basesoc_ethcore_arp_rx_depacketizer_sink_payload_data $end
$var wire 1 + main_basesoc_ethcore_arp_rx_depacketizer_sink_payload_last_be $end
$var wire 1 , main_basesoc_ethcore_arp_rx_depacketizer_sink_payload_error $end
$var wire 1 - main_ethphy1_reset1 $end
$var wire 1 . main_basesoc_ethcore_arp_tx_sink_sink_valid $end
$var wire 1 / main_basesoc_ethcore_arp_tx_sink_sink_ready $end
$var wire 1 0 main_basesoc_ethcore_arp_tx_sink_sink_first $end
$var wire 1 1 main_basesoc_ethcore_arp_tx_sink_sink_last $end
$var wire 1 2 main_basesoc_ethcore_arp_tx_sink_sink_payload_reply $end
$var wire 1 3 main_basesoc_ethcore_arp_tx_sink_sink_payload_request $end
$var wire 32 4 main_basesoc_ethcore_arp_tx_sink_sink_payload_ip_address $end
$var wire 48 5 main_basesoc_ethcore_arp_tx_sink_sink_payload_mac_address $end
$var wire 1 6 main_basesoc_ethcore_arp_rx_source_source_valid $end
$var wire 1 7 main_basesoc_ethcore_arp_rx_source_source_ready $end
$var wire 1 8 main_basesoc_ethcore_arp_rx_source_source_first $end
$var wire 1 9 main_basesoc_ethcore_arp_rx_source_source_last $end
$var wire 1 : main_basesoc_ethcore_arp_rx_source_source_payload_reply $end
$var wire 1 ; main_basesoc_ethcore_arp_rx_source_source_payload_request $end
$var wire 32 < main_basesoc_ethcore_arp_rx_source_source_payload_ip_address $end
$var wire 48 = main_basesoc_ethcore_arp_rx_source_source_payload_mac_address $end
$var wire 1 > main_basesoc_ethcore_arp_rx_sink_sink_valid $end
$var wire 1 ? main_basesoc_ethcore_arp_rx_sink_sink_ready $end
$var wire 1 @ main_basesoc_ethcore_arp_rx_sink_sink_first $end
$var wire 1 A main_basesoc_ethcore_arp_rx_sink_sink_last $end
$var wire 16 B main_basesoc_ethcore_arp_rx_sink_sink_payload_ethernet_type $end
$var wire 48 C main_basesoc_ethcore_arp_rx_sink_sink_payload_sender_mac $end
$var wire 48 D main_basesoc_ethcore_arp_rx_sink_sink_payload_target_mac $end
$var wire 8 E main_basesoc_ethcore_arp_rx_sink_sink_payload_data $end
$var wire 1 F main_basesoc_ethcore_arp_rx_sink_sink_payload_last_be $end
$var wire 1 G main_basesoc_ethcore_arp_rx_sink_sink_payload_error $end
$var wire 1 H main_basesoc_ethcore_arp_tx_packetizer_source_valid $end
$var wire 1 I main_basesoc_ethcore_arp_tx_packetizer_source_ready $end
$var wire 1 J main_basesoc_ethcore_arp_tx_packetizer_source_first $end
$var wire 1 K main_basesoc_ethcore_arp_tx_packetizer_source_last $end
$var wire 16 L main_basesoc_ethcore_arp_tx_packetizer_source_payload_ethernet_type $end
$var wire 48 M main_basesoc_ethcore_arp_tx_packetizer_source_payload_sender_mac $end
$var wire 48 N main_basesoc_ethcore_arp_tx_packetizer_source_payload_target_mac $end
$var wire 8 O main_basesoc_ethcore_arp_tx_packetizer_source_payload_data $end
$var wire 1 P main_basesoc_ethcore_arp_tx_packetizer_source_payload_last_be $end
$var wire 1 Q main_basesoc_ethcore_arp_tx_packetizer_source_payload_error $end
$var wire 1 R main_basesoc_ethcore_arp_tx_source_source_valid $end
$var wire 1 S main_basesoc_ethcore_arp_tx_source_source_ready $end
$var wire 1 T main_basesoc_ethcore_arp_tx_source_source_first $end
$var wire 1 U main_basesoc_ethcore_arp_tx_source_source_last $end
$var wire 16 V main_basesoc_ethcore_arp_tx_source_source_payload_ethernet_type $end
$var wire 48 W main_basesoc_ethcore_arp_tx_source_source_payload_sender_mac $end
$var wire 48 X main_basesoc_ethcore_arp_tx_source_source_payload_target_mac $end
$var wire 8 Y main_basesoc_ethcore_arp_tx_source_source_payload_data $end
$var wire 1 Z main_basesoc_ethcore_arp_tx_source_source_payload_last_be $end
$var wire 1 [ main_basesoc_ethcore_arp_tx_source_source_payload_error $end
$var wire 1 \ main_ethphy1_sink_valid $end
$var wire 1 ] main_ethphy1_sink_ready $end
$var wire 1 ^ main_ethphy1_sink_first $end
$var wire 1 _ main_ethphy1_sink_last $end
$var wire 8 ` main_ethphy1_sink_payload_data $end
$var wire 1 a main_ethphy1_sink_payload_last_be $end
$var wire 1 b main_ethphy1_sink_payload_error $end
$var wire 2 c main_ethphy1_rx_ctl $end
$var wire 2 d main_ethphy1_rx_ctl_reg $end
$var wire 1 e main_ethphy1_source_valid $end
$var wire 1 f main_ethphy1_source_ready $end
$var wire 1 g main_ethphy1_source_first $end
$var wire 1 h main_ethphy1_source_last $end
$var wire 8 i main_ethphy1_source_payload_data $end
$var wire 1 j main_ethphy1_source_payload_last_be $end
$var wire 1 k main_ethphy1_source_payload_error $end
$var wire 8 l main_ethphy1_rx_data $end
$var wire 1 m main_basesoc_ethcore_arp_tx_packetizer_sink_valid $end
$var wire 1 n main_basesoc_ethcore_arp_tx_packetizer_sink_ready $end
$var wire 1 o main_basesoc_ethcore_arp_tx_packetizer_sink_first $end
$var wire 1 p main_basesoc_ethcore_arp_tx_packetizer_sink_last $end
$var wire 8 q main_basesoc_ethcore_arp_tx_packetizer_sink_payload_data $end
$var wire 1 r main_basesoc_ethcore_arp_tx_packetizer_sink_payload_last_be $end
$var wire 1 s main_basesoc_ethcore_arp_tx_packetizer_sink_payload_error $end
$var wire 8 t main_basesoc_ethcore_arp_tx_packetizer_sink_param_hwsize $end
$var wire 16 u main_basesoc_ethcore_arp_tx_packetizer_sink_param_hwtype $end
$var wire 16 v main_basesoc_ethcore_arp_tx_packetizer_sink_param_opcode $end
$var wire 16 w main_basesoc_ethcore_arp_tx_packetizer_sink_param_proto $end
$var wire 8 x main_basesoc_ethcore_arp_tx_packetizer_sink_param_protosize $end
$var wire 32 y main_basesoc_ethcore_arp_tx_packetizer_sink_param_sender_ip $end
$var wire 48 z main_basesoc_ethcore_arp_tx_packetizer_sink_param_sender_mac $end
$var wire 32 { main_basesoc_ethcore_arp_tx_packetizer_sink_param_target_ip $end
$var wire 48 | main_basesoc_ethcore_arp_tx_packetizer_sink_param_target_mac $end
$var wire 8 } main_ethphy1_rx_data_reg $end
$var wire 1 ~ eth_rst_n_1 $end
$var wire 1 "! eth_rx_ctl $end
$var wire 1 "" eth_rx_er_1 $end
$var wire 4 "# eth_rx_data_1 $end
$var wire 1 "$ eth_tx_er_1 $end
$var wire 1 "% main_basesoc_ethcore_arp_rx_depacketizer_source_valid $end
$var wire 1 "& main_basesoc_ethcore_arp_rx_depacketizer_source_ready $end
$var wire 1 "' main_basesoc_ethcore_arp_rx_depacketizer_source_first $end
$var wire 1 "( main_basesoc_ethcore_arp_rx_depacketizer_source_last $end
$var wire 8 ") main_basesoc_ethcore_arp_rx_depacketizer_source_payload_data $end
$var wire 1 "* main_basesoc_ethcore_arp_rx_depacketizer_source_payload_last_be $end
$var wire 1 "+ main_basesoc_ethcore_arp_rx_depacketizer_source_payload_error $end
$var wire 8 ", main_basesoc_ethcore_arp_rx_depacketizer_source_param_hwsize $end
$var wire 16 "- main_basesoc_ethcore_arp_rx_depacketizer_source_param_hwtype $end
$var wire 16 ". main_basesoc_ethcore_arp_rx_depacketizer_source_param_opcode $end
$var wire 16 "/ main_basesoc_ethcore_arp_rx_depacketizer_source_param_proto $end
$var wire 8 "0 main_basesoc_ethcore_arp_rx_depacketizer_source_param_protosize $end
$var wire 32 "1 main_basesoc_ethcore_arp_rx_depacketizer_source_param_sender_ip $end
$var wire 48 "2 main_basesoc_ethcore_arp_rx_depacketizer_source_param_sender_mac $end
$var wire 32 "3 main_basesoc_ethcore_arp_rx_depacketizer_source_param_target_ip $end
$var wire 48 "4 main_basesoc_ethcore_arp_rx_depacketizer_source_param_target_mac $end
$var wire 1 "5 eth_col_1 $end
$var wire 1 "6 eth_crs_1 $end
$var wire 1 "7 main_ethphy1_reset_storage $end
$var wire 1 "8 main_ethphy1_reset_re $end
$var wire 8 "9 main_ethphy1_rx_cnt $end
$var wire 1 ": scope_clk $end
$var wire 1 "; scope_trig $end
$unscope  $end
$enddefinitions  $end
$dumpvars
bxxxxxxxx !
bx "
bx #
bx $
bx %
bx &
bxxxxxxxxxxxxxxxx '
bxxxxxxxxxxxxxxxxxxxxxxxxxxxxxxxxxxxxxxxxxxxxxxxx (
bxxxxxxxxxxxxxxxxxxxxxxxxxxxxxxxxxxxxxxxxxxxxxxxx )
bxxxxxxxx *
bx +
bx ,
bx -
bx .
bx /
bx 0
bx 1
bx 2
bx 3
bxxxxxxxxxxxxxxxxxxxxxxxxxxxxxxxx 4
bxxxxxxxxxxxxxxxxxxxxxxxxxxxxxxxxxxxxxxxxxxxxxxxx 5
bx 6
bx 7
bx 8
bx 9
bx :
bx ;
bxxxxxxxxxxxxxxxxxxxxxxxxxxxxxxxx <
bxxxxxxxxxxxxxxxxxxxxxxxxxxxxxxxxxxxxxxxxxxxxxxxx =
bx >
bx ?
bx @
bx A
bxxxxxxxxxxxxxxxx B
bxxxxxxxxxxxxxxxxxxxxxxxxxxxxxxxxxxxxxxxxxxxxxxxx C
bxxxxxxxxxxxxxxxxxxxxxxxxxxxxxxxxxxxxxxxxxxxxxxxx D
bxxxxxxxx E
bx F
bx G
bx H
bx I
bx J
bx K
bxxxxxxxxxxxxxxxx L
bxxxxxxxxxxxxxxxxxxxxxxxxxxxxxxxxxxxxxxxxxxxxxxxx M
bxxxxxxxxxxxxxxxxxxxxxxxxxxxxxxxxxxxxxxxxxxxxxxxx N
bxxxxxxxx O
bx P
bx Q
bx R
bx S
bx T
bx U
bxxxxxxxxxxxxxxxx V
bxxxxxxxxxxxxxxxxxxxxxxxxxxxxxxxxxxxxxxxxxxxxxxxx W
bxxxxxxxxxxxxxxxxxxxxxxxxxxxxxxxxxxxxxxxxxxxxxxxx X
bxxxxxxxx Y
bx Z
bx [
bx \
bx ]
bx ^
bx _
bxxxxxxxx `
bx a
bx b
bxx c
bxx d
bx e
bx f
bx g
bx h
bxxxxxxxx i
bx j
bx k
bxxxxxxxx l
bx m
bx n
bx o
bx p
bxxxxxxxx q
bx r
bx s
bxxxxxxxx t
bxxxxxxxxxxxxxxxx u
bxxxxxxxxxxxxxxxx v
bxxxxxxxxxxxxxxxx w
bxxxxxxxx x
bxxxxxxxxxxxxxxxxxxxxxxxxxxxxxxxx y
bxxxxxxxxxxxxxxxxxxxxxxxxxxxxxxxxxxxxxxxxxxxxxxxx z
bxxxxxxxxxxxxxxxxxxxxxxxxxxxxxxxx {
bxxxxxxxxxxxxxxxxxxxxxxxxxxxxxxxxxxxxxxxxxxxxxxxx |
bxxxxxxxx }
bx ~
bx "!
bx ""
bxxxx "#
bx "$
bx "%
bx "&
bx "'
bx "(
bxxxxxxxx ")
bx "*
bx "+
bxxxxxxxx ",
bxxxxxxxxxxxxxxxx "-
bxxxxxxxxxxxxxxxx ".
bxxxxxxxxxxxxxxxx "/
bxxxxxxxx "0
bxxxxxxxxxxxxxxxxxxxxxxxxxxxxxxxx "1
bxxxxxxxxxxxxxxxxxxxxxxxxxxxxxxxxxxxxxxxxxxxxxxxx "2
bxxxxxxxxxxxxxxxxxxxxxxxxxxxxxxxx "3
bxxxxxxxxxxxxxxxxxxxxxxxxxxxxxxxxxxxxxxxxxxxxxxxx "4
bx "5
bx "6
bx "7
bx "8
bxxxxxxxx "9
bx ":
bx ";
$end
#0
b00101001 !
b0 "
b0 #
b1 $
b0 %
b0 &
b0000000000000000 '
b000000000000000000000000000000000000000000000000 (
b000000000000000000000000000000000000000000000000 )
b00000000 *
b0 +
b0 ,
b0 -
b0 .
b1 /
b0 0
b0 1
b0 2
b0 3
b00000000000000000000000000000000 4
b000000000000000000000000000000000000000000000000 5
b0 6
b0 7
b0 8
b0 9
b0 :
b0 ;
b00000000000000000000000000000000 <
b000000000000000000000000000000000000000000000000 =
b0 >
b1 ?
b0 @
b0 A
b0000000000000000 B
b000000000000000000000000000000000000000000000000 C
b000000000000000000000000000000000000000000000000 D
b00000000 E
b0 F
b0 G
b0 H
b0 I
b0 J
b0 K
b0000000000000000 L
b000000000000000000000000000000000000000000000000 M
b000000000000000000000000001000000000000000000000 N
b00100000 O
b0 P
b0 Q
b0 R
b1 S
b0 T
b0 U
b0000100000000110 V
b000100001110001011010101000000000000000010000001 W
b010000000000000000000000000001000000000000000000 X
b00000100 Y
b0 Z
b0 [
b0 \
b1 ]
b0 ^
b0 _
b00000000 `
b0 a
b0 b
b00 c
b00 d
b0 e
b1 f
b0 g
b0 h
b11001101 i
b0 j
b0 k
b11011101 l
b0 m
b1 n
b0 o
b0 p
b00000000 q
b1 r
b0 s
b00000110 t
b0000000000000001 u
b0000000000000000 v
b0000100000000000 w
b00010100 x
b11000000101010000010110000110011 y
b000100001110001011010100000000000000000000000001 z
b00000000000000000000000000000000 {
b000000000000000000000000000000000000000000000000 |
b01001101 }
b1 ~
b0 "!
b0 ""
b1101 "#
b1 "$
b0 "%
b1 "&
b0 "'
b0 "(
b00000000 ")
b0 "*
b0 "+
b00000000 ",
b0000000000000000 "-
b0000000000000000 ".
b0000000000000000 "/
b00000000 "0
b00000000000000000000000000000000 "1
b000000000000000000000000000000000000000000000000 "2
b00000000000000000000000000000000 "3
b000000000000000000000000000000000000000000000000 "4
b0 "5
b0 "6
b0 "7
b0 "8
b10011010 "9
b1 ":
b0 ";
#1
b00101001 !
b0 "
b0 #
b1 $
b0 %
b0 &
b0000000000000000 '
b000000000000000000000000000000000000000000000000 (
b000000000000000000000000000000000000000000000000 )
b00000000 *
b0 +
b0 ,
b0 -
b0 .
b1 /
b0 0
b0 1
b0 2
b0 3
b00000000000000000000000000000000 4
b000000000000000000000000000000000000000000000000 5
b0 6
b0 7
b0 8
b0 9
b0 :
b0 ;
b00000000000000000000000000000000 <
b000000000000000000000000000000000000000000000000 =
b0 >
b1 ?
b0 @
b0 A
b0000000000000000 B
b000000000000000000000000000000000000000000000000 C
b000000000000000000000000000000000000000000000000 D
b00000000 E
b0 F
b0 G
b0 H
b0 I
b0 J
b0 K
b0000000000000000 L
b000000000000000000000000000000000000000000000000 M
b000000000000000000000000001000000000000000000000 N
b00100000 O
b0 P
b0 Q
b0 R
b1 S
b0 T
b0 U
b0000100000000110 V
b000100001110001011010101000000000000000010000001 W
b010000000000000000000000000001000000000000000000 X
b00000100 Y
b0 Z
b0 [
b0 \
b1 ]
b0 ^
b0 _
b00000000 `
b0 a
b0 b
b00 c
b00 d
b0 e
b1 f
b0 g
b0 h
b11001101 i
b0 j
b0 k
b11011101 l
b0 m
b1 n
b0 o
b0 p
b00000000 q
b1 r
b0 s
b00000110 t
b0000000000000001 u
b0000000000000000 v
b0000100000000000 w
b00010100 x
b11000000101010000010110000110011 y
b000100001110001011010100000000000000000000000001 z
b00000000000000000000000000000000 {
b000000000000000000000000000000000000000000000000 |
b01001101 }
b1 ~
b0 "!
b0 ""
b1101 "#
b1 "$
b0 "%
b1 "&
b0 "'
b0 "(
b00000000 ")
b0 "*
b0 "+
b00000000 ",
b0000000000000000 "-
b0000000000000000 ".
b0000000000000000 "/
b00000000 "0
b00000000000000000000000000000000 "1
b000000000000000000000000000000000000000000000000 "2
b00000000000000000000000000000000 "3
b000000000000000000000000000000000000000000000000 "4
b0 "5
b0 "6
b0 "7
b0 "8
b10011010 "9
b0 ":
b0 ";
#2
b00101010 !
b0 "
b0 #
b1 $
b0 %
b0 &
b0000000000000000 '
b000000000000000000000000000000000000000000000000 (
b000000000000000000000000000000000000000000000000 )
b00000000 *
b0 +
b0 ,
b0 -
b0 .
b1 /
b0 0
b0 1
b0 2
b0 3
b00000000000000000000000000000000 4
b000000000000000000000000000000000000000000000000 5
b0 6
b0 7
b0 8
b0 9
b0 :
b0 ;
b00000000000000000000000000000000 <
b000000000000000000000000000000000000000000000000 =
b0 >
b1 ?
b0 @
b0 A
b0000000000000000 B
b000000000000000000000000000000000000000000000000 C
b000000000000000000000000000000000000000000000000 D
b00000000 E
b0 F
b0 G
b0 H
b0 I
b0 J
b0 K
b0000000000000000 L
b000000000000000000000000000000000000000000000000 M
b000000100000000000000000001000000000000000000000 N
b00100000 O
b0 P
b0 Q
b0 R
b1 S
b0 T
b0 U
b0000100010000110 V
b000100001110001011010101000000000000000010000001 W
b010000000000000000000000000001000000000000000000 X
b00000100 Y
b0 Z
b0 [
b0 \
b1 ]
b0 ^
b0 _
b00000000 `
b0 a
b0 b
b00 c
b00 d
b0 e
b1 f
b0 g
b0 h
b11001101 i
b0 j
b0 k
b11011101 l
b0 m
b1 n
b0 o
b0 p
b00000000 q
b1 r
b0 s
b00000110 t
b0000000000000001 u
b0000000000000000 v
b0000100000000000 w
b00000100 x
b11000000101010000010110000110011 y
b000100001110001011010101000000000000000000000001 z
b00000000000000000000000000000000 {
b000000000000000000000000000000000000000000000000 |
b01001101 }
b1 ~
b0 "!
b0 ""
b1101 "#
b1 "$
b0 "%
b1 "&
b0 "'
b0 "(
b00000000 ")
b0 "*
b0 "+
b00000000 ",
b0000000000000000 "-
b0000000000000000 ".
b0000000000000000 "/
b00000000 "0
b00000000000000000000000000000000 "1
b000000000000000000000000000000000000000000000000 "2
b00000000000000000000000000000000 "3
b000000000000000000000000000000000000000000000000 "4
b0 "5
b0 "6
b0 "7
b0 "8
b10011011 "9
b1 ":
b0 ";
#3
b00101010 !
b0 "
b0 #
b1 $
b0 %
b0 &
b0000000000000000 '
b000000000000000000000000000000000000000000000000 (
b000000000000000000000000000000000000000000000000 )
b00000000 *
b0 +
b0 ,
b0 -
b0 .
b1 /
b0 0
b0 1
b0 2
b0 3
b00000000000000000000000000000000 4
b000000000000000000000000000000000000000000000000 5
b0 6
b0 7
b0 8
b0 9
b0 :
b0 ;
b00000000000000000000000000000000 <
b000000000000000000000000000000000000000000000000 =
b0 >
b1 ?
b0 @
b0 A
b0000000000000000 B
b000000000000000000000000000000000000000000000000 C
b000000000000000000000000000000000000000000000000 D
b00000000 E
b0 F
b0 G
b0 H
b0 I
b0 J
b0 K
b0000000000000000 L
b000000000000000000000000000000000000000000000000 M
b000000100000000000000000001000000000000000000000 N
b00100000 O
b0 P
b0 Q
b0 R
b1 S
b0 T
b0 U
b0000100010000110 V
b000100001110001011010101000000000000000010000001 W
b010000000000000000000000000001000000000000000000 X
b00000100 Y
b0 Z
b0 [
b0 \
b1 ]
b0 ^
b0 _
b00000000 `
b0 a
b0 b
b00 c
b00 d
b0 e
b1 f
b0 g
b0 h
b11001101 i
b0 j
b0 k
b11011101 l
b0 m
b1 n
b0 o
b0 p
b00000000 q
b1 r
b0 s
b00000110 t
b0000000000000001 u
b0000000000000000 v
b0000100000000000 w
b00000100 x
b11000000101010000010110000110011 y
b000100001110001011010101000000000000000000000001 z
b00000000000000000000000000000000 {
b000000000000000000000000000000000000000000000000 |
b01001101 }
b1 ~
b0 "!
b0 ""
b1101 "#
b1 "$
b0 "%
b1 "&
b0 "'
b0 "(
b00000000 ")
b0 "*
b0 "+
b00000000 ",
b0000000000000000 "-
b0000000000000000 ".
b0000000000000000 "/
b00000000 "0
b00000000000000000000000000000000 "1
b000000000000000000000000000000000000000000000000 "2
b00000000000000000000000000000000 "3
b000000000000000000000000000000000000000000000000 "4
b0 "5
b0 "6
b0 "7
b0 "8
b10011011 "9
b0 ":
b0 ";
#4
b00101011 !
b0 "
b0 #
b1 $
b0 %
b0 &
b0000000000000000 '
b000000000000000000000000000000000000000000000000 (
b000000000000000000000000000000000000000000000000 )
b00000000 *
b0 +
b0 ,
b0 -
b0 .
b1 /
b0 0
b0 1
b0 2
b0 3
b00000000000000000000000000000000 4
b000000000000000000000000000000000000000000000000 5
b0 6
b0 7
b0 8
b0 9
b0 :
b0 ;
b00000000000000000000000000000000 <
b000000000000000000000000000000000000000000000000 =
b0 >
b1 ?
b0 @
b0 A
b0000000000000000 B
b000000000000000000000000000000000000000000000000 C
b000000000000000000000000000000000000000000000000 D
b00000000 E
b0 F
b0 G
b0 H
b0 I
b0 J
b0 K
b0000000000000000 L
b000000000000000000000000000000000000000000000000 M
b000000000000000000000000001000000000000000000000 N
b00100000 O
b0 P
b0 Q
b0 R
b1 S
b0 T
b0 U
b0000100000000110 V
b000100001110001011010101000000000000000010000001 W
b010000000000000000000000000001000000000000000000 X
b00000100 Y
b0 Z
b0 [
b0 \
b1 ]
b0 ^
b0 _
b00000000 `
b0 a
b0 b
b00 c
b00 d
b0 e
b1 f
b0 g
b0 h
b11001101 i
b0 j
b0 k
b11011101 l
b0 m
b1 n
b0 o
b0 p
b00000000 q
b1 r
b0 s
b00000110 t
b0000000000000001 u
b0000000000000000 v
b0000100000000000 w
b00010100 x
b11000000101010000010110000110011 y
b000100001110001011010100000000000000100000000001 z
b00000000000000000000000000000000 {
b000000000000000000000000000000000000000000000000 |
b01001101 }
b1 ~
b0 "!
b0 ""
b1101 "#
b1 "$
b0 "%
b1 "&
b0 "'
b0 "(
b00000000 ")
b0 "*
b0 "+
b00000000 ",
b0000000000000000 "-
b0000000000000000 ".
b0000000000000000 "/
b00000000 "0
b00000000000000000000000000000000 "1
b000000000000000000000000000000000000000000000000 "2
b00000000000000000000000000000000 "3
b000000000000000000000000000000000000000000000000 "4
b0 "5
b0 "6
b0 "7
b0 "8
b10011100 "9
b1 ":
b0 ";
#5
b00101011 !
b0 "
b0 #
b1 $
b0 %
b0 &
b0000000000000000 '
b000000000000000000000000000000000000000000000000 (
b000000000000000000000000000000000000000000000000 )
b00000000 *
b0 +
b0 ,
b0 -
b0 .
b1 /
b0 0
b0 1
b0 2
b0 3
b00000000000000000000000000000000 4
b000000000000000000000000000000000000000000000000 5
b0 6
b0 7
b0 8
b0 9
b0 :
b0 ;
b00000000000000000000000000000000 <
b000000000000000000000000000000000000000000000000 =
b0 >
b1 ?
b0 @
b0 A
b0000000000000000 B
b000000000000000000000000000000000000000000000000 C
b000000000000000000000000000000000000000000000000 D
b00000000 E
b0 F
b0 G
b0 H
b0 I
b0 J
b0 K
b0000000000000000 L
b000000000000000000000000000000000000000000000000 M
b000000000000000000000000001000000000000000000000 N
b00100000 O
b0 P
b0 Q
b0 R
b1 S
b0 T
b0 U
b0000100000000110 V
b000100001110001011010101000000000000000010000001 W
b010000000000000000000000000001000000000000000000 X
b00000100 Y
b0 Z
b0 [
b0 \
b1 ]
b0 ^
b0 _
b00000000 `
b0 a
b0 b
b00 c
b00 d
b0 e
b1 f
b0 g
b0 h
b11001101 i
b0 j
b0 k
b11011101 l
b0 m
b1 n
b0 o
b0 p
b00000000 q
b1 r
b0 s
b00000110 t
b0000000000000001 u
b0000000000000000 v
b0000100000000000 w
b00010100 x
b11000000101010000010110000110011 y
b000100001110001011010100000000000000100000000001 z
b00000000000000000000000000000000 {
b000000000000000000000000000000000000000000000000 |
b01001101 }
b1 ~
b0 "!
b0 ""
b1101 "#
b1 "$
b0 "%
b1 "&
b0 "'
b0 "(
b00000000 ")
b0 "*
b0 "+
b00000000 ",
b0000000000000000 "-
b0000000000000000 ".
b0000000000000000 "/
b00000000 "0
b00000000000000000000000000000000 "1
b000000000000000000000000000000000000000000000000 "2
b00000000000000000000000000000000 "3
b000000000000000000000000000000000000000000000000 "4
b0 "5
b0 "6
b0 "7
b0 "8
b10011100 "9
b0 ":
b0 ";
#6
b00110000 !
b0 "
b0 #
b1 $
b0 %
b0 &
b0000000000000000 '
b000000000000000000000000000000000000000000000000 (
b000000000000000000000000000000000000000000000000 )
b00000000 *
b0 +
b0 ,
b0 -
b0 .
b1 /
b0 0
b0 1
b0 2
b0 3
b00000000000000000000000000000000 4
b000000000000000000000000000000000000000000000000 5
b0 6
b0 7
b0 8
b0 9
b0 :
b0 ;
b00000000000000000000000000000000 <
b000000000000000000000000000000000000000000000000 =
b0 >
b1 ?
b0 @
b0 A
b0000000000000000 B
b000000000000000000000000000000000000000000000000 C
b000000000000000000000000000000000000000000000000 D
b00000000 E
b0 F
b0 G
b0 H
b0 I
b0 J
b0 K
b0000000000000000 L
b000000000000000000000000000000000000000000000000 M
b000000100000000000000000001000000000000000000000 N
b00100000 O
b0 P
b0 Q
b0 R
b1 S
b0 T
b0 U
b0000100000000110 V
b000100001110001011010101000000000000000010000001 W
b010000000000000000000000000001000000000000000000 X
b00000100 Y
b0 Z
b0 [
b0 \
b1 ]
b0 ^
b0 _
b00000000 `
b0 a
b0 b
b00 c
b00 d
b0 e
b1 f
b0 g
b0 h
b11001101 i
b0 j
b0 k
b11011101 l
b0 m
b1 n
b0 o
b0 p
b00000000 q
b1 r
b0 s
b00000110 t
b0000000000000001 u
b0000000000000000 v
b0000100000000000 w
b00000000 x
b11000000101010000010110000110011 y
b000100001110001011010101000000000000000000000001 z
b00000000000000000000000000000000 {
b000000000000000000000000000000000000000000000000 |
b01001101 }
b1 ~
b0 "!
b0 ""
b1101 "#
b1 "$
b0 "%
b1 "&
b0 "'
b0 "(
b00000000 ")
b0 "*
b0 "+
b00000000 ",
b0000000000000000 "-
b0000000000000000 ".
b0000000000000000 "/
b00000000 "0
b00000000000000000000000000000000 "1
b000000000000000000000000000000000000000000000000 "2
b00000000000000000000000000000000 "3
b000000000000000000000000000000000000000000000000 "4
b0 "5
b0 "6
b0 "7
b0 "8
b10011101 "9
b1 ":
b0 ";
#7
b00110000 !
b0 "
b0 #
b1 $
b0 %
b0 &
b0000000000000000 '
b000000000000000000000000000000000000000000000000 (
b000000000000000000000000000000000000000000000000 )
b00000000 *
b0 +
b0 ,
b0 -
b0 .
b1 /
b0 0
b0 1
b0 2
b0 3
b00000000000000000000000000000000 4
b000000000000000000000000000000000000000000000000 5
b0 6
b0 7
b0 8
b0 9
b0 :
b0 ;
b00000000000000000000000000000000 <
b000000000000000000000000000000000000000000000000 =
b0 >
b1 ?
b0 @
b0 A
b0000000000000000 B
b000000000000000000000000000000000000000000000000 C
b000000000000000000000000000000000000000000000000 D
b00000000 E
b0 F
b0 G
b0 H
b0 I
b0 J
b0 K
b0000000000000000 L
b000000000000000000000000000000000000000000000000 M
b000000100000000000000000001000000000000000000000 N
b00100000 O
b0 P
b0 Q
b0 R
b1 S
b0 T
b0 U
b0000100000000110 V
b000100001110001011010101000000000000000010000001 W
b010000000000000000000000000001000000000000000000 X
b00000100 Y
b0 Z
b0 [
b0 \
b1 ]
b0 ^
b0 _
b00000000 `
b0 a
b0 b
b00 c
b00 d
b0 e
b1 f
b0 g
b0 h
b11001101 i
b0 j
b0 k
b11011101 l
b0 m
b1 n
b0 o
b0 p
b00000000 q
b1 r
b0 s
b00000110 t
b0000000000000001 u
b0000000000000000 v
b0000100000000000 w
b00000000 x
b11000000101010000010110000110011 y
b000100001110001011010101000000000000000000000001 z
b00000000000000000000000000000000 {
b000000000000000000000000000000000000000000000000 |
b01001101 }
b1 ~
b0 "!
b0 ""
b1101 "#
b1 "$
b0 "%
b1 "&
b0 "'
b0 "(
b00000000 ")
b0 "*
b0 "+
b00000000 ",
b0000000000000000 "-
b0000000000000000 ".
b0000000000000000 "/
b00000000 "0
b00000000000000000000000000000000 "1
b000000000000000000000000000000000000000000000000 "2
b00000000000000000000000000000000 "3
b000000000000000000000000000000000000000000000000 "4
b0 "5
b0 "6
b0 "7
b0 "8
b10011101 "9
b0 ":
b0 ";
